Missing parameter values.
System.Runtime.InteropServices.COMException (0x8004100E): Missing parameter values.
   at CrystalDecisions.ReportAppServer.Controllers.ReportSourceClass.Export(ExportOptions pExportOptions, RequestContext pRequestContext)
   at CrystalDecisions.ReportSource.EromReportSourceBase.ExportToStream(ExportRequestContext reqContext)
CrystalDecisions.CrystalReports.Engine.ParameterFieldCurrentValueException: Missing parameter values. ---> System.Runtime.InteropServices.COMException: Missing parameter values.
   at CrystalDecisions.ReportAppServer.Controllers.ReportSourceClass.Export(ExportOptions pExportOptions, RequestContext pRequestContext)
   at CrystalDecisions.ReportSource.EromReportSourceBase.ExportToStream(ExportRequestContext reqContext)
   --- End of inner exception stack trace ---
   at CrystalDecisions.ReportAppServer.ConvertDotNetToErom.ThrowDotNetException(Exception e)
   at CrystalDecisions.ReportSource.EromReportSourceBase.ExportToStream(ExportRequestContext reqContext)
   at CrystalDecisions.CrystalReports.Engine.FormatEngine.ExportToStream(ExportRequestContext reqContext)
   at CrystalDecisions.CrystalReports.Engine.FormatEngine.Export(ExportRequestContext reqContext)
   at CrystalDecisions.CrystalReports.Engine.ReportDocument.ExportToDisk(ExportFormatType formatType, String fileName)
   at SCTMis.Services.ComplianceServices.ProduceForm4ASchool(ProduceForm4A newModel, String& errMsg) in C:\PROJECTS\SCT_MIS\SCTMis\Services\ComplianceServices.cs:line 55


